[gd_scene load_steps=3 format=2]

[sub_resource type="ArrayMesh" id=1]
resource_name = "Cylinder"
surfaces/0 = {
"aabb": AABB( -1.1, -0.1, 1.78814e-07, 0.392893, 0.2, 0.777817 ),
"array_data": PoolByteArray( 250, 174, 61, 191, 205, 204, 204, 189, 73, 235, 43, 63, 91, 0, 169, 0, 87, 0, 91, 129, 192, 51, 0, 56, 244, 4, 53, 191, 205, 204, 204, 61, 244, 4, 53, 63, 91, 0, 169, 0, 87, 0, 91, 129, 0, 52, 0, 0, 244, 4, 53, 191, 205, 204, 204, 189, 244, 4, 53, 63, 91, 0, 169, 0, 87, 0, 91, 129, 0, 52, 0, 56, 1, 228, 69, 191, 205, 204, 204, 189, 155, 103, 34, 63, 96, 0, 174, 0, 82, 0, 96, 129, 128, 51, 0, 56, 250, 174, 61, 191, 205, 204, 204, 61, 73, 235, 43, 63, 96, 0, 174, 0, 82, 0, 96, 129, 192, 51, 0, 0, 250, 174, 61, 191, 205, 204, 204, 189, 73, 235, 43, 63, 96, 0, 174, 0, 82, 0, 96, 129, 192, 51, 0, 56, 2, 159, 77, 191, 205, 204, 204, 189, 192, 127, 24, 63, 100, 0, 178, 0, 78, 0, 100, 129, 64, 51, 0, 56, 1, 228, 69, 191, 205, 204, 204, 61, 155, 103, 34, 63, 100, 0, 178, 0, 78, 0, 100, 129, 128, 51, 0, 0, 1, 228, 69, 191, 205, 204, 204, 189, 155, 103, 34, 63, 100, 0, 178, 0, 78, 0, 100, 129, 128, 51, 0, 56, 51, 219, 84, 191, 205, 204, 204, 189, 216, 57, 14, 63, 103, 0, 183, 0, 73, 0, 103, 129, 0, 51, 0, 56, 2, 159, 77, 191, 205, 204, 204, 61, 192, 127, 24, 63, 103, 0, 183, 0, 73, 0, 103, 129, 64, 51, 0, 0, 2, 159, 77, 191, 205, 204, 204, 189, 192, 127, 24, 63, 103, 0, 183, 0, 73, 0, 103, 129, 64, 51, 0, 56, 28, 148, 91, 191, 205, 204, 204, 189, 58, 156, 3, 63, 107, 0, 189, 0, 67, 0, 107, 129, 192, 50, 0, 56, 51, 219, 84, 191, 205, 204, 204, 61, 216, 57, 14, 63, 107, 0, 189, 0, 67, 0, 107, 129, 0, 51, 0, 0, 51, 219, 84, 191, 205, 204, 204, 189, 216, 57, 14, 63, 107, 0, 189, 0, 67, 0, 107, 129, 0, 51, 0, 56, 150, 197, 97, 191, 205, 204, 204, 189, 236, 90, 241, 62, 110, 0, 194, 0, 62, 0, 110, 129, 128, 50, 0, 56, 28, 148, 91, 191, 205, 204, 204, 61, 58, 156, 3, 63, 110, 0, 194, 0, 62, 0, 110, 129, 192, 50, 0, 0, 28, 148, 91, 191, 205, 204, 204, 189, 58, 156, 3, 63, 110, 0, 194, 0, 62, 0, 110, 129, 192, 50, 0, 56, 216, 107, 103, 191, 205, 204, 204, 189, 125, 232, 218, 62, 113, 0, 199, 0, 57, 0, 113, 129, 64, 50, 0, 56, 150, 197, 97, 191, 205, 204, 204, 61, 236, 90, 241, 62, 113, 0, 199, 0, 57, 0, 113, 129, 128, 50, 0, 0, 150, 197, 97, 191, 205, 204, 204, 189, 236, 90, 241, 62, 113, 0, 199, 0, 57, 0, 113, 129, 128, 50, 0, 56, 96, 131, 108, 191, 205, 204, 204, 189, 13, 239, 195, 62, 116, 0, 205, 0, 51, 0, 116, 129, 0, 50, 0, 56, 216, 107, 103, 191, 205, 204, 204, 61, 125, 232, 218, 62, 116, 0, 205, 0, 51, 0, 116, 129, 64, 50, 0, 0, 216, 107, 103, 191, 205, 204, 204, 189, 125, 232, 218, 62, 116, 0, 205, 0, 51, 0, 116, 129, 64, 50, 0, 56, 7, 9, 113, 191, 205, 204, 204, 189, 217, 124, 172, 62, 118, 0, 211, 0, 45, 0, 118, 129, 192, 49, 0, 56, 96, 131, 108, 191, 205, 204, 204, 61, 13, 239, 195, 62, 118, 0, 211, 0, 45, 0, 118, 129, 0, 50, 0, 0, 96, 131, 108, 191, 205, 204, 204, 189, 13, 239, 195, 62, 118, 0, 211, 0, 45, 0, 118, 129, 0, 50, 0, 56, 10, 250, 116, 191, 205, 204, 204, 189, 50, 160, 148, 62, 120, 0, 217, 0, 39, 0, 120, 129, 128, 49, 0, 56, 7, 9, 113, 191, 205, 204, 204, 61, 217, 124, 172, 62, 120, 0, 217, 0, 39, 0, 120, 129, 192, 49, 0, 0, 7, 9, 113, 191, 205, 204, 204, 189, 217, 124, 172, 62, 120, 0, 217, 0, 39, 0, 120, 129, 192, 49, 0, 56, 247, 83, 120, 191, 205, 204, 204, 189, 192, 207, 120, 62, 122, 0, 223, 0, 33, 0, 122, 129, 64, 49, 0, 56, 10, 250, 116, 191, 205, 204, 204, 61, 50, 160, 148, 62, 122, 0, 223, 0, 33, 0, 122, 129, 128, 49, 0, 0, 10, 250, 116, 191, 205, 204, 204, 189, 50, 160, 148, 62, 122, 0, 223, 0, 33, 0, 122, 129, 128, 49, 0, 56, 191, 20, 123, 191, 205, 204, 204, 189, 206, 197, 71, 62, 123, 0, 229, 0, 27, 0, 123, 129, 0, 49, 0, 56, 247, 83, 120, 191, 205, 204, 204, 61, 192, 207, 120, 62, 123, 0, 229, 0, 27, 0, 123, 129, 64, 49, 0, 0, 247, 83, 120, 191, 205, 204, 204, 189, 192, 207, 120, 62, 123, 0, 229, 0, 27, 0, 123, 129, 64, 49, 0, 56, 172, 58, 125, 191, 205, 204, 204, 189, 133, 64, 22, 62, 125, 0, 235, 0, 21, 0, 125, 129, 192, 48, 0, 56, 191, 20, 123, 191, 205, 204, 204, 61, 206, 197, 71, 62, 125, 0, 235, 0, 21, 0, 125, 129, 0, 49, 0, 0, 191, 20, 123, 191, 205, 204, 204, 189, 206, 197, 71, 62, 125, 0, 235, 0, 21, 0, 125, 129, 0, 49, 0, 56, 110, 196, 126, 191, 205, 204, 204, 189, 47, 189, 200, 61, 126, 0, 241, 0, 15, 0, 126, 129, 128, 48, 0, 56, 172, 58, 125, 191, 205, 204, 204, 61, 133, 64, 22, 62, 126, 0, 241, 0, 15, 0, 126, 129, 192, 48, 0, 0, 172, 58, 125, 191, 205, 204, 204, 189, 133, 64, 22, 62, 126, 0, 241, 0, 15, 0, 126, 129, 192, 48, 0, 56, 14, 177, 127, 191, 205, 204, 204, 189, 254, 250, 72, 61, 126, 0, 247, 0, 9, 0, 126, 129, 64, 48, 0, 56, 110, 196, 126, 191, 205, 204, 204, 61, 47, 189, 200, 61, 126, 0, 247, 0, 9, 0, 126, 129, 128, 48, 0, 0, 110, 196, 126, 191, 205, 204, 204, 189, 47, 189, 200, 61, 126, 0, 247, 0, 9, 0, 126, 129, 128, 48, 0, 56, 0, 0, 128, 191, 205, 204, 204, 189, 5, 0, 64, 52, 126, 0, 253, 0, 3, 0, 126, 129, 0, 48, 0, 56, 14, 177, 127, 191, 205, 204, 204, 61, 254, 250, 72, 61, 126, 0, 253, 0, 3, 0, 126, 129, 64, 48, 0, 0, 14, 177, 127, 191, 205, 204, 204, 189, 254, 250, 72, 61, 126, 0, 253, 0, 3, 0, 126, 129, 64, 48, 0, 56, 12, 31, 71, 191, 205, 204, 204, 61, 12, 31, 71, 63, 165, 0, 87, 0, 87, 0, 91, 127, 0, 52, 0, 0, 226, 166, 80, 191, 205, 204, 204, 189, 106, 28, 61, 63, 165, 0, 87, 0, 87, 0, 91, 127, 192, 51, 0, 56, 12, 31, 71, 191, 205, 204, 204, 189, 12, 31, 71, 63, 165, 0, 87, 0, 87, 0, 91, 127, 0, 52, 0, 56, 226, 166, 80, 191, 205, 204, 204, 61, 106, 28, 61, 63, 160, 0, 82, 0, 82, 0, 96, 127, 192, 51, 0, 0, 2, 174, 89, 191, 205, 204, 204, 189, 44, 165, 50, 63, 160, 0, 82, 0, 82, 0, 96, 127, 128, 51, 0, 56, 226, 166, 80, 191, 205, 204, 204, 189, 106, 28, 61, 63, 160, 0, 82, 0, 82, 0, 96, 127, 192, 51, 0, 56, 2, 174, 89, 191, 205, 204, 204, 61, 44, 165, 50, 63, 156, 0, 78, 0, 78, 0, 100, 127, 128, 51, 0, 0, 233, 46, 98, 191, 205, 204, 204, 189, 187, 191, 39, 63, 156, 0, 78, 0, 78, 0, 100, 127, 64, 51, 0, 56, 2, 174, 89, 191, 205, 204, 204, 189, 44, 165, 50, 63, 156, 0, 78, 0, 78, 0, 100, 127, 128, 51, 0, 56, 233, 46, 98, 191, 205, 204, 204, 61, 187, 191, 39, 63, 153, 0, 73, 0, 73, 0, 103, 127, 64, 51, 0, 0, 82, 36, 106, 191, 205, 204, 204, 189, 211, 114, 28, 63, 153, 0, 73, 0, 73, 0, 103, 127, 0, 51, 0, 56, 233, 46, 98, 191, 205, 204, 204, 189, 187, 191, 39, 63, 153, 0, 73, 0, 73, 0, 103, 127, 64, 51, 0, 56, 82, 36, 106, 191, 205, 204, 204, 61, 211, 114, 28, 63, 149, 0, 67, 0, 67, 0, 107, 127, 0, 51, 0, 0, 84, 137, 113, 191, 205, 204, 204, 189, 114, 197, 16, 63, 149, 0, 67, 0, 67, 0, 107, 127, 192, 50, 0, 56, 82, 36, 106, 191, 205, 204, 204, 189, 211, 114, 28, 63, 149, 0, 67, 0, 67, 0, 107, 127, 0, 51, 0, 56, 84, 137, 113, 191, 205, 204, 204, 61, 114, 197, 16, 63, 146, 0, 62, 0, 62, 0, 110, 127, 192, 50, 0, 0, 90, 89, 120, 191, 205, 204, 204, 189, 209, 190, 4, 63, 146, 0, 62, 0, 62, 0, 110, 127, 128, 50, 0, 56, 84, 137, 113, 191, 205, 204, 204, 189, 114, 197, 16, 63, 146, 0, 62, 0, 62, 0, 110, 127, 192, 50, 0, 56, 90, 89, 120, 191, 205, 204, 204, 61, 209, 190, 4, 63, 143, 0, 57, 0, 57, 0, 113, 127, 128, 50, 0, 0, 59, 144, 126, 191, 205, 204, 204, 189, 141, 204, 240, 62, 143, 0, 57, 0, 57, 0, 113, 127, 64, 50, 0, 56, 90, 89, 120, 191, 205, 204, 204, 189, 209, 190, 4, 63, 143, 0, 57, 0, 57, 0, 113, 127, 128, 50, 0, 56, 59, 144, 126, 191, 205, 204, 204, 61, 141, 204, 240, 62, 140, 0, 51, 0, 51, 0, 116, 127, 64, 50, 0, 0, 18, 21, 130, 191, 205, 204, 204, 189, 248, 134, 215, 62, 140, 0, 51, 0, 51, 0, 116, 127, 0, 50, 0, 56, 59, 144, 126, 191, 205, 204, 204, 189, 141, 204, 240, 62, 140, 0, 51, 0, 51, 0, 116, 127, 64, 50, 0, 56, 18, 21, 130, 191, 205, 204, 204, 61, 248, 134, 215, 62, 138, 0, 45, 0, 45, 0, 118, 127, 0, 50, 0, 0, 193, 145, 132, 191, 205, 204, 204, 189, 136, 188, 189, 62, 138, 0, 45, 0, 45, 0, 118, 127, 192, 49, 0, 56, 18, 21, 130, 191, 205, 204, 204, 189, 248, 134, 215, 62, 138, 0, 45, 0, 45, 0, 118, 127, 0, 50, 0, 56, 193, 145, 132, 191, 205, 204, 204, 61, 136, 188, 189, 62, 136, 0, 39, 0, 39, 0, 120, 127, 192, 49, 0, 0, 182, 188, 134, 191, 205, 204, 204, 189, 5, 125, 163, 62, 136, 0, 39, 0, 39, 0, 120, 127, 128, 49, 0, 56, 193, 145, 132, 191, 205, 204, 204, 189, 136, 188, 189, 62, 136, 0, 39, 0, 39, 0, 120, 127, 192, 49, 0, 56, 182, 188, 134, 191, 205, 204, 204, 61, 5, 125, 163, 62, 134, 0, 33, 0, 33, 0, 122, 127, 128, 49, 0, 0, 146, 148, 136, 191, 205, 204, 204, 189, 173, 216, 136, 62, 134, 0, 33, 0, 33, 0, 122, 127, 64, 49, 0, 56, 182, 188, 134, 191, 205, 204, 204, 189, 5, 125, 163, 62, 134, 0, 33, 0, 33, 0, 122, 127, 128, 49, 0, 56, 146, 148, 136, 191, 205, 204, 204, 61, 173, 216, 136, 62, 133, 0, 27, 0, 27, 0, 123, 127, 64, 49, 0, 0, 55, 24, 138, 191, 205, 204, 204, 189, 249, 191, 91, 62, 133, 0, 27, 0, 27, 0, 123, 127, 0, 49, 0, 56, 146, 148, 136, 191, 205, 204, 204, 189, 173, 216, 136, 62, 133, 0, 27, 0, 27, 0, 123, 127, 64, 49, 0, 56, 55, 24, 138, 191, 205, 204, 204, 61, 249, 191, 91, 62, 131, 0, 21, 0, 21, 0, 125, 127, 0, 49, 0, 0, 170, 70, 139, 191, 205, 204, 204, 189, 246, 70, 37, 62, 131, 0, 21, 0, 21, 0, 125, 127, 192, 48, 0, 56, 55, 24, 138, 191, 205, 204, 204, 189, 249, 191, 91, 62, 131, 0, 21, 0, 21, 0, 125, 127, 0, 49, 0, 56, 170, 70, 139, 191, 205, 204, 204, 61, 246, 70, 37, 62, 130, 0, 15, 0, 15, 0, 126, 127, 192, 48, 0, 0, 58, 31, 140, 191, 205, 204, 204, 189, 13, 208, 220, 61, 130, 0, 15, 0, 15, 0, 126, 127, 128, 48, 0, 56, 170, 70, 139, 191, 205, 204, 204, 189, 246, 70, 37, 62, 130, 0, 15, 0, 15, 0, 126, 127, 192, 48, 0, 56, 58, 31, 140, 191, 205, 204, 204, 61, 13, 208, 220, 61, 130, 0, 9, 0, 9, 0, 126, 127, 128, 48, 0, 0, 98, 161, 140, 191, 205, 204, 204, 189, 32, 20, 93, 61, 130, 0, 9, 0, 9, 0, 126, 127, 64, 48, 0, 56, 58, 31, 140, 191, 205, 204, 204, 189, 13, 208, 220, 61, 130, 0, 9, 0, 9, 0, 126, 127, 128, 48, 0, 56, 98, 161, 140, 191, 205, 204, 204, 61, 32, 20, 93, 61, 130, 0, 3, 0, 3, 0, 126, 127, 64, 48, 0, 0, 205, 204, 140, 191, 205, 204, 204, 189, 5, 0, 64, 52, 130, 0, 3, 0, 3, 0, 126, 127, 0, 48, 0, 56, 98, 161, 140, 191, 205, 204, 204, 189, 32, 20, 93, 61, 130, 0, 3, 0, 3, 0, 126, 127, 64, 48, 0, 56, 250, 174, 61, 191, 205, 204, 204, 189, 73, 235, 43, 63, 0, 129, 0, 0, 127, 0, 0, 127, 192, 51, 0, 56, 12, 31, 71, 191, 205, 204, 204, 189, 12, 31, 71, 63, 0, 129, 0, 0, 127, 0, 0, 127, 0, 52, 0, 56, 226, 166, 80, 191, 205, 204, 204, 189, 106, 28, 61, 63, 0, 129, 0, 0, 127, 0, 0, 127, 192, 51, 0, 56, 250, 174, 61, 191, 205, 204, 204, 61, 73, 235, 43, 63, 0, 127, 0, 0, 127, 0, 0, 127, 192, 51, 0, 0, 12, 31, 71, 191, 205, 204, 204, 61, 12, 31, 71, 63, 0, 127, 0, 0, 127, 0, 0, 127, 0, 52, 0, 0, 244, 4, 53, 191, 205, 204, 204, 61, 244, 4, 53, 63, 0, 127, 0, 0, 127, 0, 0, 127, 0, 52, 0, 0, 2, 174, 89, 191, 205, 204, 204, 189, 44, 165, 50, 63, 0, 129, 0, 0, 127, 0, 0, 127, 128, 51, 0, 56, 1, 228, 69, 191, 205, 204, 204, 189, 155, 103, 34, 63, 0, 129, 0, 0, 127, 0, 0, 127, 128, 51, 0, 56, 250, 174, 61, 191, 205, 204, 204, 61, 73, 235, 43, 63, 0, 127, 0, 0, 127, 0, 0, 127, 192, 51, 0, 0, 2, 174, 89, 191, 205, 204, 204, 61, 44, 165, 50, 63, 0, 127, 0, 0, 127, 0, 0, 127, 128, 51, 0, 0, 226, 166, 80, 191, 205, 204, 204, 61, 106, 28, 61, 63, 0, 127, 0, 0, 127, 0, 0, 127, 192, 51, 0, 0, 233, 46, 98, 191, 205, 204, 204, 189, 187, 191, 39, 63, 0, 129, 0, 0, 127, 0, 0, 127, 64, 51, 0, 56, 2, 159, 77, 191, 205, 204, 204, 189, 192, 127, 24, 63, 0, 129, 0, 0, 127, 0, 0, 127, 64, 51, 0, 56, 1, 228, 69, 191, 205, 204, 204, 61, 155, 103, 34, 63, 0, 127, 0, 0, 127, 0, 0, 127, 128, 51, 0, 0, 233, 46, 98, 191, 205, 204, 204, 61, 187, 191, 39, 63, 0, 127, 0, 0, 127, 0, 0, 127, 64, 51, 0, 0, 2, 174, 89, 191, 205, 204, 204, 61, 44, 165, 50, 63, 0, 127, 0, 0, 127, 0, 0, 127, 128, 51, 0, 0, 82, 36, 106, 191, 205, 204, 204, 189, 211, 114, 28, 63, 0, 129, 0, 0, 127, 0, 0, 127, 0, 51, 0, 56, 51, 219, 84, 191, 205, 204, 204, 189, 216, 57, 14, 63, 0, 129, 0, 0, 127, 0, 0, 127, 0, 51, 0, 56, 2, 159, 77, 191, 205, 204, 204, 61, 192, 127, 24, 63, 0, 127, 0, 0, 127, 0, 0, 127, 64, 51, 0, 0, 82, 36, 106, 191, 205, 204, 204, 61, 211, 114, 28, 63, 0, 127, 0, 0, 127, 0, 0, 127, 0, 51, 0, 0, 233, 46, 98, 191, 205, 204, 204, 61, 187, 191, 39, 63, 0, 127, 0, 0, 127, 0, 0, 127, 64, 51, 0, 0, 28, 148, 91, 191, 205, 204, 204, 189, 58, 156, 3, 63, 0, 129, 0, 0, 127, 0, 0, 127, 192, 50, 0, 56, 84, 137, 113, 191, 205, 204, 204, 189, 114, 197, 16, 63, 0, 129, 0, 0, 127, 0, 0, 127, 192, 50, 0, 56, 28, 148, 91, 191, 205, 204, 204, 61, 58, 156, 3, 63, 0, 127, 0, 0, 127, 0, 0, 127, 192, 50, 0, 0, 82, 36, 106, 191, 205, 204, 204, 61, 211, 114, 28, 63, 0, 127, 0, 0, 127, 0, 0, 127, 0, 51, 0, 0, 51, 219, 84, 191, 205, 204, 204, 61, 216, 57, 14, 63, 0, 127, 0, 0, 127, 0, 0, 127, 0, 51, 0, 0, 28, 148, 91, 191, 205, 204, 204, 189, 58, 156, 3, 63, 0, 129, 0, 0, 127, 0, 0, 127, 192, 50, 0, 56, 90, 89, 120, 191, 205, 204, 204, 189, 209, 190, 4, 63, 0, 129, 0, 0, 127, 0, 0, 127, 128, 50, 0, 56, 150, 197, 97, 191, 205, 204, 204, 189, 236, 90, 241, 62, 0, 129, 0, 0, 127, 0, 0, 127, 128, 50, 0, 56, 90, 89, 120, 191, 205, 204, 204, 61, 209, 190, 4, 63, 0, 127, 0, 0, 127, 0, 0, 127, 128, 50, 0, 0, 84, 137, 113, 191, 205, 204, 204, 61, 114, 197, 16, 63, 0, 127, 0, 0, 127, 0, 0, 127, 192, 50, 0, 0, 216, 107, 103, 191, 205, 204, 204, 189, 125, 232, 218, 62, 0, 129, 0, 0, 127, 0, 0, 127, 64, 50, 0, 56, 90, 89, 120, 191, 205, 204, 204, 189, 209, 190, 4, 63, 0, 129, 0, 0, 127, 0, 0, 127, 128, 50, 0, 56, 59, 144, 126, 191, 205, 204, 204, 189, 141, 204, 240, 62, 0, 129, 0, 0, 127, 0, 0, 127, 64, 50, 0, 56, 216, 107, 103, 191, 205, 204, 204, 61, 125, 232, 218, 62, 0, 127, 0, 0, 127, 0, 0, 127, 64, 50, 0, 0, 150, 197, 97, 191, 205, 204, 204, 61, 236, 90, 241, 62, 0, 127, 0, 0, 127, 0, 0, 127, 128, 50, 0, 0, 18, 21, 130, 191, 205, 204, 204, 189, 248, 134, 215, 62, 0, 129, 0, 0, 127, 0, 0, 127, 0, 50, 0, 56, 96, 131, 108, 191, 205, 204, 204, 189, 13, 239, 195, 62, 0, 129, 0, 0, 127, 0, 0, 127, 0, 50, 0, 56, 18, 21, 130, 191, 205, 204, 204, 61, 248, 134, 215, 62, 0, 127, 0, 0, 127, 0, 0, 127, 0, 50, 0, 0, 59, 144, 126, 191, 205, 204, 204, 61, 141, 204, 240, 62, 0, 127, 0, 0, 127, 0, 0, 127, 64, 50, 0, 0, 7, 9, 113, 191, 205, 204, 204, 189, 217, 124, 172, 62, 0, 129, 0, 0, 127, 0, 0, 127, 192, 49, 0, 56, 193, 145, 132, 191, 205, 204, 204, 189, 136, 188, 189, 62, 0, 129, 0, 0, 127, 0, 0, 127, 192, 49, 0, 56, 7, 9, 113, 191, 205, 204, 204, 61, 217, 124, 172, 62, 0, 127, 0, 0, 127, 0, 0, 127, 192, 49, 0, 0, 96, 131, 108, 191, 205, 204, 204, 61, 13, 239, 195, 62, 0, 127, 0, 0, 127, 0, 0, 127, 0, 50, 0, 0, 10, 250, 116, 191, 205, 204, 204, 189, 50, 160, 148, 62, 0, 129, 0, 0, 127, 0, 0, 127, 128, 49, 0, 56, 193, 145, 132, 191, 205, 204, 204, 189, 136, 188, 189, 62, 0, 129, 0, 0, 127, 0, 0, 127, 192, 49, 0, 56, 182, 188, 134, 191, 205, 204, 204, 189, 5, 125, 163, 62, 0, 129, 0, 0, 127, 0, 0, 127, 128, 49, 0, 56, 10, 250, 116, 191, 205, 204, 204, 61, 50, 160, 148, 62, 0, 127, 0, 0, 127, 0, 0, 127, 128, 49, 0, 0, 193, 145, 132, 191, 205, 204, 204, 61, 136, 188, 189, 62, 0, 127, 0, 0, 127, 0, 0, 127, 192, 49, 0, 0, 10, 250, 116, 191, 205, 204, 204, 189, 50, 160, 148, 62, 0, 129, 0, 0, 127, 0, 0, 127, 128, 49, 0, 56, 146, 148, 136, 191, 205, 204, 204, 189, 173, 216, 136, 62, 0, 129, 0, 0, 127, 0, 0, 127, 64, 49, 0, 56, 247, 83, 120, 191, 205, 204, 204, 189, 192, 207, 120, 62, 0, 129, 0, 0, 127, 0, 0, 127, 64, 49, 0, 56, 146, 148, 136, 191, 205, 204, 204, 61, 173, 216, 136, 62, 0, 127, 0, 0, 127, 0, 0, 127, 64, 49, 0, 0, 182, 188, 134, 191, 205, 204, 204, 61, 5, 125, 163, 62, 0, 127, 0, 0, 127, 0, 0, 127, 128, 49, 0, 0, 191, 20, 123, 191, 205, 204, 204, 189, 206, 197, 71, 62, 0, 129, 0, 0, 127, 0, 0, 127, 0, 49, 0, 56, 55, 24, 138, 191, 205, 204, 204, 189, 249, 191, 91, 62, 0, 129, 0, 0, 127, 0, 0, 127, 0, 49, 0, 56, 191, 20, 123, 191, 205, 204, 204, 61, 206, 197, 71, 62, 0, 127, 0, 0, 127, 0, 0, 127, 0, 49, 0, 0, 247, 83, 120, 191, 205, 204, 204, 61, 192, 207, 120, 62, 0, 127, 0, 0, 127, 0, 0, 127, 64, 49, 0, 0, 172, 58, 125, 191, 205, 204, 204, 189, 133, 64, 22, 62, 0, 129, 0, 0, 127, 0, 0, 127, 192, 48, 0, 56, 170, 70, 139, 191, 205, 204, 204, 189, 246, 70, 37, 62, 0, 129, 0, 0, 127, 0, 0, 127, 192, 48, 0, 56, 172, 58, 125, 191, 205, 204, 204, 61, 133, 64, 22, 62, 0, 127, 0, 0, 127, 0, 0, 127, 192, 48, 0, 0, 55, 24, 138, 191, 205, 204, 204, 61, 249, 191, 91, 62, 0, 127, 0, 0, 127, 0, 0, 127, 0, 49, 0, 0, 58, 31, 140, 191, 205, 204, 204, 189, 13, 208, 220, 61, 0, 129, 0, 0, 127, 0, 0, 127, 128, 48, 0, 56, 110, 196, 126, 191, 205, 204, 204, 189, 47, 189, 200, 61, 0, 129, 0, 0, 127, 0, 0, 127, 128, 48, 0, 56, 58, 31, 140, 191, 205, 204, 204, 61, 13, 208, 220, 61, 0, 127, 0, 0, 127, 0, 0, 127, 128, 48, 0, 0, 170, 70, 139, 191, 205, 204, 204, 61, 246, 70, 37, 62, 0, 127, 0, 0, 127, 0, 0, 127, 192, 48, 0, 0, 98, 161, 140, 191, 205, 204, 204, 189, 32, 20, 93, 61, 0, 129, 0, 0, 127, 0, 0, 127, 64, 48, 0, 56, 14, 177, 127, 191, 205, 204, 204, 189, 254, 250, 72, 61, 0, 129, 0, 0, 127, 0, 0, 127, 64, 48, 0, 56, 110, 196, 126, 191, 205, 204, 204, 61, 47, 189, 200, 61, 0, 127, 0, 0, 127, 0, 0, 127, 128, 48, 0, 0, 98, 161, 140, 191, 205, 204, 204, 61, 32, 20, 93, 61, 0, 127, 0, 0, 127, 0, 0, 127, 64, 48, 0, 0, 205, 204, 140, 191, 205, 204, 204, 189, 5, 0, 64, 52, 0, 129, 0, 0, 127, 0, 0, 127, 0, 48, 0, 56, 0, 0, 128, 191, 205, 204, 204, 189, 5, 0, 64, 52, 0, 129, 0, 0, 127, 0, 0, 127, 0, 48, 0, 56, 14, 177, 127, 191, 205, 204, 204, 61, 254, 250, 72, 61, 0, 127, 0, 0, 127, 0, 0, 127, 64, 48, 0, 0, 205, 204, 140, 191, 205, 204, 204, 61, 5, 0, 64, 52, 0, 127, 0, 0, 127, 0, 0, 127, 0, 48, 0, 0, 205, 204, 140, 191, 205, 204, 204, 189, 5, 0, 64, 52, 0, 0, 129, 0, 127, 0, 0, 127, 0, 48, 0, 56, 0, 0, 128, 191, 205, 204, 204, 61, 5, 0, 64, 52, 0, 0, 129, 0, 127, 0, 0, 127, 0, 48, 0, 0, 0, 0, 128, 191, 205, 204, 204, 189, 5, 0, 64, 52, 0, 0, 129, 0, 127, 0, 0, 127, 0, 48, 0, 56, 244, 4, 53, 191, 205, 204, 204, 61, 244, 4, 53, 63, 89, 0, 89, 0, 127, 0, 0, 129, 0, 52, 0, 0, 12, 31, 71, 191, 205, 204, 204, 189, 12, 31, 71, 63, 89, 0, 89, 0, 127, 0, 0, 129, 0, 52, 0, 56, 244, 4, 53, 191, 205, 204, 204, 189, 244, 4, 53, 63, 89, 0, 89, 0, 127, 0, 0, 129, 0, 52, 0, 56, 250, 174, 61, 191, 205, 204, 204, 189, 73, 235, 43, 63, 91, 0, 169, 0, 87, 0, 91, 129, 192, 51, 0, 56, 250, 174, 61, 191, 205, 204, 204, 61, 73, 235, 43, 63, 91, 0, 169, 0, 87, 0, 91, 129, 192, 51, 0, 0, 244, 4, 53, 191, 205, 204, 204, 61, 244, 4, 53, 63, 91, 0, 169, 0, 87, 0, 91, 129, 0, 52, 0, 0, 1, 228, 69, 191, 205, 204, 204, 61, 155, 103, 34, 63, 96, 0, 174, 0, 82, 0, 96, 129, 128, 51, 0, 0, 2, 159, 77, 191, 205, 204, 204, 189, 192, 127, 24, 63, 100, 0, 178, 0, 78, 0, 100, 129, 64, 51, 0, 56, 2, 159, 77, 191, 205, 204, 204, 61, 192, 127, 24, 63, 100, 0, 178, 0, 78, 0, 100, 129, 64, 51, 0, 0, 1, 228, 69, 191, 205, 204, 204, 61, 155, 103, 34, 63, 100, 0, 178, 0, 78, 0, 100, 129, 128, 51, 0, 0, 51, 219, 84, 191, 205, 204, 204, 61, 216, 57, 14, 63, 103, 0, 183, 0, 73, 0, 103, 129, 0, 51, 0, 0, 28, 148, 91, 191, 205, 204, 204, 61, 58, 156, 3, 63, 107, 0, 189, 0, 67, 0, 107, 129, 192, 50, 0, 0, 150, 197, 97, 191, 205, 204, 204, 189, 236, 90, 241, 62, 110, 0, 194, 0, 62, 0, 110, 129, 128, 50, 0, 56, 150, 197, 97, 191, 205, 204, 204, 61, 236, 90, 241, 62, 110, 0, 194, 0, 62, 0, 110, 129, 128, 50, 0, 0, 28, 148, 91, 191, 205, 204, 204, 61, 58, 156, 3, 63, 110, 0, 194, 0, 62, 0, 110, 129, 192, 50, 0, 0, 216, 107, 103, 191, 205, 204, 204, 61, 125, 232, 218, 62, 113, 0, 199, 0, 57, 0, 113, 129, 64, 50, 0, 0, 96, 131, 108, 191, 205, 204, 204, 189, 13, 239, 195, 62, 116, 0, 205, 0, 51, 0, 116, 129, 0, 50, 0, 56, 96, 131, 108, 191, 205, 204, 204, 61, 13, 239, 195, 62, 116, 0, 205, 0, 51, 0, 116, 129, 0, 50, 0, 0, 216, 107, 103, 191, 205, 204, 204, 61, 125, 232, 218, 62, 116, 0, 205, 0, 51, 0, 116, 129, 64, 50, 0, 0, 7, 9, 113, 191, 205, 204, 204, 61, 217, 124, 172, 62, 118, 0, 211, 0, 45, 0, 118, 129, 192, 49, 0, 0, 10, 250, 116, 191, 205, 204, 204, 189, 50, 160, 148, 62, 120, 0, 217, 0, 39, 0, 120, 129, 128, 49, 0, 56, 10, 250, 116, 191, 205, 204, 204, 61, 50, 160, 148, 62, 120, 0, 217, 0, 39, 0, 120, 129, 128, 49, 0, 0, 7, 9, 113, 191, 205, 204, 204, 61, 217, 124, 172, 62, 120, 0, 217, 0, 39, 0, 120, 129, 192, 49, 0, 0, 247, 83, 120, 191, 205, 204, 204, 189, 192, 207, 120, 62, 122, 0, 223, 0, 33, 0, 122, 129, 64, 49, 0, 56, 247, 83, 120, 191, 205, 204, 204, 61, 192, 207, 120, 62, 122, 0, 223, 0, 33, 0, 122, 129, 64, 49, 0, 0, 10, 250, 116, 191, 205, 204, 204, 61, 50, 160, 148, 62, 122, 0, 223, 0, 33, 0, 122, 129, 128, 49, 0, 0, 191, 20, 123, 191, 205, 204, 204, 189, 206, 197, 71, 62, 123, 0, 229, 0, 27, 0, 123, 129, 0, 49, 0, 56, 191, 20, 123, 191, 205, 204, 204, 61, 206, 197, 71, 62, 123, 0, 229, 0, 27, 0, 123, 129, 0, 49, 0, 0, 247, 83, 120, 191, 205, 204, 204, 61, 192, 207, 120, 62, 123, 0, 229, 0, 27, 0, 123, 129, 64, 49, 0, 0, 172, 58, 125, 191, 205, 204, 204, 61, 133, 64, 22, 62, 125, 0, 235, 0, 21, 0, 125, 129, 192, 48, 0, 0, 110, 196, 126, 191, 205, 204, 204, 189, 47, 189, 200, 61, 126, 0, 241, 0, 15, 0, 126, 129, 128, 48, 0, 56, 110, 196, 126, 191, 205, 204, 204, 61, 47, 189, 200, 61, 126, 0, 241, 0, 15, 0, 126, 129, 128, 48, 0, 0, 172, 58, 125, 191, 205, 204, 204, 61, 133, 64, 22, 62, 126, 0, 241, 0, 15, 0, 126, 129, 192, 48, 0, 0, 14, 177, 127, 191, 205, 204, 204, 189, 254, 250, 72, 61, 126, 0, 247, 0, 9, 0, 126, 129, 64, 48, 0, 56, 14, 177, 127, 191, 205, 204, 204, 61, 254, 250, 72, 61, 126, 0, 247, 0, 9, 0, 126, 129, 64, 48, 0, 0, 110, 196, 126, 191, 205, 204, 204, 61, 47, 189, 200, 61, 126, 0, 247, 0, 9, 0, 126, 129, 128, 48, 0, 0, 0, 0, 128, 191, 205, 204, 204, 61, 5, 0, 64, 52, 126, 0, 253, 0, 3, 0, 126, 129, 0, 48, 0, 0, 12, 31, 71, 191, 205, 204, 204, 61, 12, 31, 71, 63, 165, 0, 87, 0, 87, 0, 91, 127, 0, 52, 0, 0, 226, 166, 80, 191, 205, 204, 204, 61, 106, 28, 61, 63, 165, 0, 87, 0, 87, 0, 91, 127, 192, 51, 0, 0, 226, 166, 80, 191, 205, 204, 204, 189, 106, 28, 61, 63, 165, 0, 87, 0, 87, 0, 91, 127, 192, 51, 0, 56, 2, 174, 89, 191, 205, 204, 204, 61, 44, 165, 50, 63, 160, 0, 82, 0, 82, 0, 96, 127, 128, 51, 0, 0, 233, 46, 98, 191, 205, 204, 204, 61, 187, 191, 39, 63, 156, 0, 78, 0, 78, 0, 100, 127, 64, 51, 0, 0, 233, 46, 98, 191, 205, 204, 204, 61, 187, 191, 39, 63, 153, 0, 73, 0, 73, 0, 103, 127, 64, 51, 0, 0, 82, 36, 106, 191, 205, 204, 204, 61, 211, 114, 28, 63, 153, 0, 73, 0, 73, 0, 103, 127, 0, 51, 0, 0, 82, 36, 106, 191, 205, 204, 204, 189, 211, 114, 28, 63, 153, 0, 73, 0, 73, 0, 103, 127, 0, 51, 0, 56, 84, 137, 113, 191, 205, 204, 204, 61, 114, 197, 16, 63, 149, 0, 67, 0, 67, 0, 107, 127, 192, 50, 0, 0, 84, 137, 113, 191, 205, 204, 204, 61, 114, 197, 16, 63, 146, 0, 62, 0, 62, 0, 110, 127, 192, 50, 0, 0, 90, 89, 120, 191, 205, 204, 204, 61, 209, 190, 4, 63, 146, 0, 62, 0, 62, 0, 110, 127, 128, 50, 0, 0, 90, 89, 120, 191, 205, 204, 204, 189, 209, 190, 4, 63, 146, 0, 62, 0, 62, 0, 110, 127, 128, 50, 0, 56, 90, 89, 120, 191, 205, 204, 204, 61, 209, 190, 4, 63, 143, 0, 57, 0, 57, 0, 113, 127, 128, 50, 0, 0, 59, 144, 126, 191, 205, 204, 204, 61, 141, 204, 240, 62, 143, 0, 57, 0, 57, 0, 113, 127, 64, 50, 0, 0, 59, 144, 126, 191, 205, 204, 204, 189, 141, 204, 240, 62, 143, 0, 57, 0, 57, 0, 113, 127, 64, 50, 0, 56, 18, 21, 130, 191, 205, 204, 204, 61, 248, 134, 215, 62, 140, 0, 51, 0, 51, 0, 116, 127, 0, 50, 0, 0, 18, 21, 130, 191, 205, 204, 204, 61, 248, 134, 215, 62, 138, 0, 45, 0, 45, 0, 118, 127, 0, 50, 0, 0, 193, 145, 132, 191, 205, 204, 204, 61, 136, 188, 189, 62, 138, 0, 45, 0, 45, 0, 118, 127, 192, 49, 0, 0, 193, 145, 132, 191, 205, 204, 204, 189, 136, 188, 189, 62, 138, 0, 45, 0, 45, 0, 118, 127, 192, 49, 0, 56, 193, 145, 132, 191, 205, 204, 204, 61, 136, 188, 189, 62, 136, 0, 39, 0, 39, 0, 120, 127, 192, 49, 0, 0, 182, 188, 134, 191, 205, 204, 204, 61, 5, 125, 163, 62, 136, 0, 39, 0, 39, 0, 120, 127, 128, 49, 0, 0, 182, 188, 134, 191, 205, 204, 204, 189, 5, 125, 163, 62, 136, 0, 39, 0, 39, 0, 120, 127, 128, 49, 0, 56, 182, 188, 134, 191, 205, 204, 204, 61, 5, 125, 163, 62, 134, 0, 33, 0, 33, 0, 122, 127, 128, 49, 0, 0, 146, 148, 136, 191, 205, 204, 204, 61, 173, 216, 136, 62, 134, 0, 33, 0, 33, 0, 122, 127, 64, 49, 0, 0, 146, 148, 136, 191, 205, 204, 204, 189, 173, 216, 136, 62, 134, 0, 33, 0, 33, 0, 122, 127, 64, 49, 0, 56, 146, 148, 136, 191, 205, 204, 204, 61, 173, 216, 136, 62, 133, 0, 27, 0, 27, 0, 123, 127, 64, 49, 0, 0, 55, 24, 138, 191, 205, 204, 204, 61, 249, 191, 91, 62, 133, 0, 27, 0, 27, 0, 123, 127, 0, 49, 0, 0, 55, 24, 138, 191, 205, 204, 204, 189, 249, 191, 91, 62, 133, 0, 27, 0, 27, 0, 123, 127, 0, 49, 0, 56, 55, 24, 138, 191, 205, 204, 204, 61, 249, 191, 91, 62, 131, 0, 21, 0, 21, 0, 125, 127, 0, 49, 0, 0, 170, 70, 139, 191, 205, 204, 204, 61, 246, 70, 37, 62, 131, 0, 21, 0, 21, 0, 125, 127, 192, 48, 0, 0, 170, 70, 139, 191, 205, 204, 204, 189, 246, 70, 37, 62, 131, 0, 21, 0, 21, 0, 125, 127, 192, 48, 0, 56, 58, 31, 140, 191, 205, 204, 204, 61, 13, 208, 220, 61, 130, 0, 15, 0, 15, 0, 126, 127, 128, 48, 0, 0, 58, 31, 140, 191, 205, 204, 204, 61, 13, 208, 220, 61, 130, 0, 9, 0, 9, 0, 126, 127, 128, 48, 0, 0, 98, 161, 140, 191, 205, 204, 204, 61, 32, 20, 93, 61, 130, 0, 9, 0, 9, 0, 126, 127, 64, 48, 0, 0, 98, 161, 140, 191, 205, 204, 204, 189, 32, 20, 93, 61, 130, 0, 9, 0, 9, 0, 126, 127, 64, 48, 0, 56, 205, 204, 140, 191, 205, 204, 204, 61, 5, 0, 64, 52, 130, 0, 3, 0, 3, 0, 126, 127, 0, 48, 0, 0, 250, 174, 61, 191, 205, 204, 204, 189, 73, 235, 43, 63, 0, 129, 0, 0, 127, 0, 0, 127, 192, 51, 0, 56, 244, 4, 53, 191, 205, 204, 204, 189, 244, 4, 53, 63, 0, 129, 0, 0, 127, 0, 0, 127, 0, 52, 0, 56, 12, 31, 71, 191, 205, 204, 204, 189, 12, 31, 71, 63, 0, 129, 0, 0, 127, 0, 0, 127, 0, 52, 0, 56, 250, 174, 61, 191, 205, 204, 204, 61, 73, 235, 43, 63, 0, 127, 0, 0, 127, 0, 0, 127, 192, 51, 0, 0, 226, 166, 80, 191, 205, 204, 204, 61, 106, 28, 61, 63, 0, 127, 0, 0, 127, 0, 0, 127, 192, 51, 0, 0, 12, 31, 71, 191, 205, 204, 204, 61, 12, 31, 71, 63, 0, 127, 0, 0, 127, 0, 0, 127, 0, 52, 0, 0, 250, 174, 61, 191, 205, 204, 204, 189, 73, 235, 43, 63, 0, 129, 0, 0, 127, 0, 0, 127, 192, 51, 0, 56, 226, 166, 80, 191, 205, 204, 204, 189, 106, 28, 61, 63, 0, 129, 0, 0, 127, 0, 0, 127, 192, 51, 0, 56, 2, 174, 89, 191, 205, 204, 204, 189, 44, 165, 50, 63, 0, 129, 0, 0, 127, 0, 0, 127, 128, 51, 0, 56, 2, 159, 77, 191, 205, 204, 204, 61, 192, 127, 24, 63, 0, 127, 0, 0, 127, 0, 0, 127, 64, 51, 0, 0, 2, 159, 77, 191, 205, 204, 204, 189, 192, 127, 24, 63, 0, 129, 0, 0, 127, 0, 0, 127, 64, 51, 0, 56, 233, 46, 98, 191, 205, 204, 204, 189, 187, 191, 39, 63, 0, 129, 0, 0, 127, 0, 0, 127, 64, 51, 0, 56, 82, 36, 106, 191, 205, 204, 204, 189, 211, 114, 28, 63, 0, 129, 0, 0, 127, 0, 0, 127, 0, 51, 0, 56, 28, 148, 91, 191, 205, 204, 204, 61, 58, 156, 3, 63, 0, 127, 0, 0, 127, 0, 0, 127, 192, 50, 0, 0, 150, 197, 97, 191, 205, 204, 204, 61, 236, 90, 241, 62, 0, 127, 0, 0, 127, 0, 0, 127, 128, 50, 0, 0, 90, 89, 120, 191, 205, 204, 204, 61, 209, 190, 4, 63, 0, 127, 0, 0, 127, 0, 0, 127, 128, 50, 0, 0, 150, 197, 97, 191, 205, 204, 204, 189, 236, 90, 241, 62, 0, 129, 0, 0, 127, 0, 0, 127, 128, 50, 0, 56, 10, 250, 116, 191, 205, 204, 204, 61, 50, 160, 148, 62, 0, 127, 0, 0, 127, 0, 0, 127, 128, 49, 0, 0, 182, 188, 134, 191, 205, 204, 204, 61, 5, 125, 163, 62, 0, 127, 0, 0, 127, 0, 0, 127, 128, 49, 0, 0, 193, 145, 132, 191, 205, 204, 204, 61, 136, 188, 189, 62, 0, 127, 0, 0, 127, 0, 0, 127, 192, 49, 0, 0, 182, 188, 134, 191, 205, 204, 204, 189, 5, 125, 163, 62, 0, 129, 0, 0, 127, 0, 0, 127, 128, 49, 0, 56, 0, 0, 128, 191, 205, 204, 204, 61, 5, 0, 64, 52, 0, 127, 0, 0, 127, 0, 0, 127, 0, 48, 0, 0, 205, 204, 140, 191, 205, 204, 204, 61, 5, 0, 64, 52, 0, 0, 129, 0, 127, 0, 0, 127, 0, 48, 0, 0, 244, 4, 53, 191, 205, 204, 204, 61, 244, 4, 53, 63, 89, 0, 89, 0, 127, 0, 0, 129, 0, 52, 0, 0, 12, 31, 71, 191, 205, 204, 204, 61, 12, 31, 71, 63, 89, 0, 89, 0, 127, 0, 0, 129, 0, 52, 0, 0, 12, 31, 71, 191, 205, 204, 204, 189, 12, 31, 71, 63, 89, 0, 89, 0, 127, 0, 0, 129, 0, 52, 0, 56 ),
"array_index_data": PoolByteArray( 0, 0, 2, 0, 1, 0, 3, 0, 5, 0, 4, 0, 6, 0, 8, 0, 7, 0, 9, 0, 11, 0, 10, 0, 12, 0, 14, 0, 13, 0, 15, 0, 17, 0, 16, 0, 18, 0, 20, 0, 19, 0, 21, 0, 23, 0, 22, 0, 24, 0, 26, 0, 25, 0, 27, 0, 29, 0, 28, 0, 30, 0, 32, 0, 31, 0, 33, 0, 35, 0, 34, 0, 36, 0, 38, 0, 37, 0, 39, 0, 41, 0, 40, 0, 42, 0, 44, 0, 43, 0, 45, 0, 47, 0, 46, 0, 48, 0, 50, 0, 49, 0, 51, 0, 53, 0, 52, 0, 54, 0, 56, 0, 55, 0, 57, 0, 59, 0, 58, 0, 60, 0, 62, 0, 61, 0, 63, 0, 65, 0, 64, 0, 66, 0, 68, 0, 67, 0, 69, 0, 71, 0, 70, 0, 72, 0, 74, 0, 73, 0, 75, 0, 77, 0, 76, 0, 78, 0, 80, 0, 79, 0, 81, 0, 83, 0, 82, 0, 84, 0, 86, 0, 85, 0, 87, 0, 89, 0, 88, 0, 90, 0, 92, 0, 91, 0, 93, 0, 95, 0, 94, 0, 96, 0, 98, 0, 97, 0, 99, 0, 101, 0, 100, 0, 96, 0, 103, 0, 102, 0, 104, 0, 106, 0, 105, 0, 103, 0, 108, 0, 107, 0, 109, 0, 111, 0, 110, 0, 108, 0, 113, 0, 112, 0, 114, 0, 116, 0, 115, 0, 117, 0, 118, 0, 112, 0, 119, 0, 121, 0, 120, 0, 122, 0, 124, 0, 123, 0, 119, 0, 126, 0, 125, 0, 127, 0, 129, 0, 128, 0, 130, 0, 131, 0, 125, 0, 127, 0, 133, 0, 132, 0, 130, 0, 135, 0, 134, 0, 136, 0, 137, 0, 132, 0, 138, 0, 139, 0, 134, 0, 140, 0, 142, 0, 141, 0, 143, 0, 138, 0, 144, 0, 145, 0, 147, 0, 146, 0, 143, 0, 149, 0, 148, 0, 150, 0, 151, 0, 146, 0, 152, 0, 153, 0, 148, 0, 154, 0, 155, 0, 151, 0, 156, 0, 152, 0, 157, 0, 154, 0, 159, 0, 158, 0, 156, 0, 161, 0, 160, 0, 159, 0, 163, 0, 162, 0, 164, 0, 160, 0, 165, 0, 163, 0, 167, 0, 166, 0, 168, 0, 165, 0, 169, 0, 170, 0, 172, 0, 171, 0, 173, 0, 175, 0, 174, 0, 176, 0, 178, 0, 177, 0, 3, 0, 4, 0, 179, 0, 180, 0, 182, 0, 181, 0, 9, 0, 10, 0, 183, 0, 12, 0, 13, 0, 184, 0, 185, 0, 187, 0, 186, 0, 18, 0, 19, 0, 188, 0, 189, 0, 191, 0, 190, 0, 24, 0, 25, 0, 192, 0, 193, 0, 195, 0, 194, 0, 196, 0, 198, 0, 197, 0, 199, 0, 201, 0, 200, 0, 36, 0, 37, 0, 202, 0, 203, 0, 205, 0, 204, 0, 206, 0, 208, 0, 207, 0, 45, 0, 46, 0, 209, 0, 210, 0, 212, 0, 211, 0, 51, 0, 52, 0, 213, 0, 54, 0, 55, 0, 214, 0, 215, 0, 217, 0, 216, 0, 60, 0, 61, 0, 218, 0, 219, 0, 221, 0, 220, 0, 222, 0, 224, 0, 223, 0, 69, 0, 70, 0, 225, 0, 226, 0, 228, 0, 227, 0, 229, 0, 231, 0, 230, 0, 232, 0, 234, 0, 233, 0, 235, 0, 237, 0, 236, 0, 238, 0, 240, 0, 239, 0, 87, 0, 88, 0, 241, 0, 242, 0, 244, 0, 243, 0, 93, 0, 94, 0, 245, 0, 246, 0, 248, 0, 247, 0, 249, 0, 251, 0, 250, 0, 252, 0, 254, 0, 253, 0, 249, 0, 111, 0, 109, 0, 103, 0, 107, 0, 102, 0, 109, 0, 110, 0, 255, 0, 0, 1, 2, 1, 1, 1, 255, 0, 120, 0, 121, 0, 117, 0, 112, 0, 113, 0, 119, 0, 120, 0, 126, 0, 117, 0, 128, 0, 118, 0, 3, 1, 5, 1, 4, 1, 127, 0, 128, 0, 6, 1, 130, 0, 125, 0, 135, 0, 127, 0, 132, 0, 129, 0, 130, 0, 134, 0, 139, 0, 136, 0, 132, 0, 133, 0, 138, 0, 134, 0, 144, 0, 145, 0, 137, 0, 136, 0, 7, 1, 9, 1, 8, 1, 145, 0, 146, 0, 10, 1, 143, 0, 148, 0, 153, 0, 150, 0, 146, 0, 147, 0, 152, 0, 148, 0, 157, 0, 154, 0, 151, 0, 150, 0, 156, 0, 157, 0, 161, 0, 154, 0, 158, 0, 155, 0, 156, 0, 160, 0, 164, 0, 159, 0, 162, 0, 158, 0, 164, 0, 165, 0, 168, 0, 163, 0, 166, 0, 162, 0, 168, 0, 169, 0, 11, 1, 170, 0, 171, 0, 12, 1, 13, 1, 15, 1, 14, 1 ),
"blend_shape_data": [  ],
"format": 97559,
"index_count": 396,
"primitive": 4,
"skeleton_aabb": [  ],
"vertex_count": 272
}

[sub_resource type="ConcavePolygonShape" id=2]
data = PoolVector3Array( -0.741, -0.1, 0.6716, -0.7071, -0.1, 0.7071, -0.7071, 0.1, 0.7071, -0.773, -0.1, 0.6344, -0.741, -0.1, 0.6716, -0.741, 0.1, 0.6716, -0.8032, -0.1, 0.5957, -0.773, -0.1, 0.6344, -0.773, 0.1, 0.6344, -0.8315, -0.1, 0.5556, -0.8032, -0.1, 0.5957, -0.8032, 0.1, 0.5957, -0.8577, -0.1, 0.5141, -0.8315, -0.1, 0.5556, -0.8315, 0.1, 0.5556, -0.8819, -0.1, 0.4714, -0.8577, -0.1, 0.5141, -0.8577, 0.1, 0.5141, -0.904, -0.1, 0.4276, -0.8819, -0.1, 0.4714, -0.8819, 0.1, 0.4714, -0.9239, -0.1, 0.3827, -0.904, -0.1, 0.4276, -0.904, 0.1, 0.4276, -0.9415, -0.1, 0.3369, -0.9239, -0.1, 0.3827, -0.9239, 0.1, 0.3827, -0.9569, -0.1, 0.2903, -0.9415, -0.1, 0.3369, -0.9415, 0.1, 0.3369, -0.97, -0.1, 0.243, -0.9569, -0.1, 0.2903, -0.9569, 0.1, 0.2903, -0.9808, -0.1, 0.1951, -0.97, -0.1, 0.243, -0.97, 0.1, 0.243, -0.9892, -0.1, 0.1467, -0.9808, -0.1, 0.1951, -0.9808, 0.1, 0.1951, -0.9952, -0.1, 0.098, -0.9892, -0.1, 0.1467, -0.9892, 0.1, 0.1467, -0.9988, -0.1, 0.0491, -0.9952, -0.1, 0.098, -0.9952, 0.1, 0.098, -1, -0.1, 0, -0.9988, -0.1, 0.0491, -0.9988, 0.1, 0.0491, -0.7778, 0.1, 0.7778, -0.7778, -0.1, 0.7778, -0.815, -0.1, 0.7387, -0.815, 0.1, 0.7387, -0.815, -0.1, 0.7387, -0.8503, -0.1, 0.6978, -0.8503, 0.1, 0.6978, -0.8503, -0.1, 0.6978, -0.8835, -0.1, 0.6553, -0.8835, 0.1, 0.6553, -0.8835, -0.1, 0.6553, -0.9146, -0.1, 0.6111, -0.9146, 0.1, 0.6111, -0.9146, -0.1, 0.6111, -0.9435, -0.1, 0.5655, -0.9435, 0.1, 0.5655, -0.9435, -0.1, 0.5655, -0.9701, -0.1, 0.5185, -0.9701, 0.1, 0.5185, -0.9701, -0.1, 0.5185, -0.9944, -0.1, 0.4703, -0.9944, 0.1, 0.4703, -0.9944, -0.1, 0.4703, -1.0163, -0.1, 0.421, -1.0163, 0.1, 0.421, -1.0163, -0.1, 0.421, -1.0357, -0.1, 0.3706, -1.0357, 0.1, 0.3706, -1.0357, -0.1, 0.3706, -1.0526, -0.1, 0.3193, -1.0526, 0.1, 0.3193, -1.0526, -0.1, 0.3193, -1.067, -0.1, 0.2673, -1.067, 0.1, 0.2673, -1.067, -0.1, 0.2673, -1.0789, -0.1, 0.2146, -1.0789, 0.1, 0.2146, -1.0789, -0.1, 0.2146, -1.0881, -0.1, 0.1614, -1.0881, 0.1, 0.1614, -1.0881, -0.1, 0.1614, -1.0947, -0.1, 0.1078, -1.0947, 0.1, 0.1078, -1.0947, -0.1, 0.1078, -1.0987, -0.1, 0.054, -1.0987, 0.1, 0.054, -1.0987, -0.1, 0.054, -1.1, -0.1, 0, -0.741, -0.1, 0.6716, -0.815, -0.1, 0.7387, -0.7778, -0.1, 0.7778, -0.741, 0.1, 0.6716, -0.7071, 0.1, 0.7071, -0.7778, 0.1, 0.7778, -0.741, -0.1, 0.6716, -0.773, -0.1, 0.6344, -0.8503, -0.1, 0.6978, -0.741, 0.1, 0.6716, -0.815, 0.1, 0.7387, -0.8503, 0.1, 0.6978, -0.773, -0.1, 0.6344, -0.8032, -0.1, 0.5957, -0.8835, -0.1, 0.6553, -0.773, 0.1, 0.6344, -0.8503, 0.1, 0.6978, -0.8835, 0.1, 0.6553, -0.8032, -0.1, 0.5957, -0.8315, -0.1, 0.5556, -0.9146, -0.1, 0.6111, -0.8032, 0.1, 0.5957, -0.8835, 0.1, 0.6553, -0.9146, 0.1, 0.6111, -0.8577, -0.1, 0.5141, -0.9435, -0.1, 0.5655, -0.9146, -0.1, 0.6111, -0.8577, 0.1, 0.5141, -0.8315, 0.1, 0.5556, -0.9146, 0.1, 0.6111, -0.8577, -0.1, 0.5141, -0.8819, -0.1, 0.4714, -0.9701, -0.1, 0.5185, -0.8577, 0.1, 0.5141, -0.9435, 0.1, 0.5655, -0.9701, 0.1, 0.5185, -0.904, -0.1, 0.4276, -0.9944, -0.1, 0.4703, -0.9701, -0.1, 0.5185, -0.904, 0.1, 0.4276, -0.8819, 0.1, 0.4714, -0.9701, 0.1, 0.5185, -0.904, -0.1, 0.4276, -0.9239, -0.1, 0.3827, -1.0163, -0.1, 0.421, -0.904, 0.1, 0.4276, -0.9944, 0.1, 0.4703, -1.0163, 0.1, 0.421, -0.9415, -0.1, 0.3369, -1.0357, -0.1, 0.3706, -1.0163, -0.1, 0.421, -0.9415, 0.1, 0.3369, -0.9239, 0.1, 0.3827, -1.0163, 0.1, 0.421, -0.9569, -0.1, 0.2903, -1.0526, -0.1, 0.3193, -1.0357, -0.1, 0.3706, -0.9569, 0.1, 0.2903, -0.9415, 0.1, 0.3369, -1.0357, 0.1, 0.3706, -0.9569, -0.1, 0.2903, -0.97, -0.1, 0.243, -1.067, -0.1, 0.2673, -0.9569, 0.1, 0.2903, -1.0526, 0.1, 0.3193, -1.067, 0.1, 0.2673, -0.9808, -0.1, 0.1951, -1.0789, -0.1, 0.2146, -1.067, -0.1, 0.2673, -0.9808, 0.1, 0.1951, -0.97, 0.1, 0.243, -1.067, 0.1, 0.2673, -0.9892, -0.1, 0.1467, -1.0881, -0.1, 0.1614, -1.0789, -0.1, 0.2146, -0.9892, 0.1, 0.1467, -0.9808, 0.1, 0.1951, -1.0789, 0.1, 0.2146, -0.9892, -0.1, 0.1467, -0.9952, -0.1, 0.098, -1.0947, -0.1, 0.1078, -0.9892, 0.1, 0.1467, -1.0881, 0.1, 0.1614, -1.0947, 0.1, 0.1078, -0.9952, -0.1, 0.098, -0.9988, -0.1, 0.0491, -1.0987, -0.1, 0.054, -0.9952, 0.1, 0.098, -1.0947, 0.1, 0.1078, -1.0987, 0.1, 0.054, -0.9988, -0.1, 0.0491, -1, -0.1, 0, -1.1, -0.1, 0, -0.9988, 0.1, 0.0491, -1.0987, 0.1, 0.054, -1.1, 0.1, 0, -1.1, -0.1, 0, -1, -0.1, 0, -1, 0.1, 0, -0.7071, 0.1, 0.7071, -0.7071, -0.1, 0.7071, -0.7778, -0.1, 0.7778, -0.741, -0.1, 0.6716, -0.7071, 0.1, 0.7071, -0.741, 0.1, 0.6716, -0.773, -0.1, 0.6344, -0.741, 0.1, 0.6716, -0.773, 0.1, 0.6344, -0.8032, -0.1, 0.5957, -0.773, 0.1, 0.6344, -0.8032, 0.1, 0.5957, -0.8315, -0.1, 0.5556, -0.8032, 0.1, 0.5957, -0.8315, 0.1, 0.5556, -0.8577, -0.1, 0.5141, -0.8315, 0.1, 0.5556, -0.8577, 0.1, 0.5141, -0.8819, -0.1, 0.4714, -0.8577, 0.1, 0.5141, -0.8819, 0.1, 0.4714, -0.904, -0.1, 0.4276, -0.8819, 0.1, 0.4714, -0.904, 0.1, 0.4276, -0.9239, -0.1, 0.3827, -0.904, 0.1, 0.4276, -0.9239, 0.1, 0.3827, -0.9415, -0.1, 0.3369, -0.9239, 0.1, 0.3827, -0.9415, 0.1, 0.3369, -0.9569, -0.1, 0.2903, -0.9415, 0.1, 0.3369, -0.9569, 0.1, 0.2903, -0.97, -0.1, 0.243, -0.9569, 0.1, 0.2903, -0.97, 0.1, 0.243, -0.9808, -0.1, 0.1951, -0.97, 0.1, 0.243, -0.9808, 0.1, 0.1951, -0.9892, -0.1, 0.1467, -0.9808, 0.1, 0.1951, -0.9892, 0.1, 0.1467, -0.9952, -0.1, 0.098, -0.9892, 0.1, 0.1467, -0.9952, 0.1, 0.098, -0.9988, -0.1, 0.0491, -0.9952, 0.1, 0.098, -0.9988, 0.1, 0.0491, -1, -0.1, 0, -0.9988, 0.1, 0.0491, -1, 0.1, 0, -0.7778, 0.1, 0.7778, -0.815, -0.1, 0.7387, -0.815, 0.1, 0.7387, -0.815, 0.1, 0.7387, -0.8503, -0.1, 0.6978, -0.8503, 0.1, 0.6978, -0.8503, 0.1, 0.6978, -0.8835, -0.1, 0.6553, -0.8835, 0.1, 0.6553, -0.8835, 0.1, 0.6553, -0.9146, -0.1, 0.6111, -0.9146, 0.1, 0.6111, -0.9146, 0.1, 0.6111, -0.9435, -0.1, 0.5655, -0.9435, 0.1, 0.5655, -0.9435, 0.1, 0.5655, -0.9701, -0.1, 0.5185, -0.9701, 0.1, 0.5185, -0.9701, 0.1, 0.5185, -0.9944, -0.1, 0.4703, -0.9944, 0.1, 0.4703, -0.9944, 0.1, 0.4703, -1.0163, -0.1, 0.421, -1.0163, 0.1, 0.421, -1.0163, 0.1, 0.421, -1.0357, -0.1, 0.3706, -1.0357, 0.1, 0.3706, -1.0357, 0.1, 0.3706, -1.0526, -0.1, 0.3193, -1.0526, 0.1, 0.3193, -1.0526, 0.1, 0.3193, -1.067, -0.1, 0.2673, -1.067, 0.1, 0.2673, -1.067, 0.1, 0.2673, -1.0789, -0.1, 0.2146, -1.0789, 0.1, 0.2146, -1.0789, 0.1, 0.2146, -1.0881, -0.1, 0.1614, -1.0881, 0.1, 0.1614, -1.0881, 0.1, 0.1614, -1.0947, -0.1, 0.1078, -1.0947, 0.1, 0.1078, -1.0947, 0.1, 0.1078, -1.0987, -0.1, 0.054, -1.0987, 0.1, 0.054, -1.0987, 0.1, 0.054, -1.1, -0.1, 0, -1.1, 0.1, 0, -0.741, -0.1, 0.6716, -0.7778, -0.1, 0.7778, -0.7071, -0.1, 0.7071, -0.741, 0.1, 0.6716, -0.7778, 0.1, 0.7778, -0.815, 0.1, 0.7387, -0.741, -0.1, 0.6716, -0.8503, -0.1, 0.6978, -0.815, -0.1, 0.7387, -0.741, 0.1, 0.6716, -0.8503, 0.1, 0.6978, -0.773, 0.1, 0.6344, -0.773, -0.1, 0.6344, -0.8835, -0.1, 0.6553, -0.8503, -0.1, 0.6978, -0.773, 0.1, 0.6344, -0.8835, 0.1, 0.6553, -0.8032, 0.1, 0.5957, -0.8032, -0.1, 0.5957, -0.9146, -0.1, 0.6111, -0.8835, -0.1, 0.6553, -0.8032, 0.1, 0.5957, -0.9146, 0.1, 0.6111, -0.8315, 0.1, 0.5556, -0.8577, -0.1, 0.5141, -0.9146, -0.1, 0.6111, -0.8315, -0.1, 0.5556, -0.8577, 0.1, 0.5141, -0.9146, 0.1, 0.6111, -0.9435, 0.1, 0.5655, -0.8577, -0.1, 0.5141, -0.9701, -0.1, 0.5185, -0.9435, -0.1, 0.5655, -0.8577, 0.1, 0.5141, -0.9701, 0.1, 0.5185, -0.8819, 0.1, 0.4714, -0.904, -0.1, 0.4276, -0.9701, -0.1, 0.5185, -0.8819, -0.1, 0.4714, -0.904, 0.1, 0.4276, -0.9701, 0.1, 0.5185, -0.9944, 0.1, 0.4703, -0.904, -0.1, 0.4276, -1.0163, -0.1, 0.421, -0.9944, -0.1, 0.4703, -0.904, 0.1, 0.4276, -1.0163, 0.1, 0.421, -0.9239, 0.1, 0.3827, -0.9415, -0.1, 0.3369, -1.0163, -0.1, 0.421, -0.9239, -0.1, 0.3827, -0.9415, 0.1, 0.3369, -1.0163, 0.1, 0.421, -1.0357, 0.1, 0.3706, -0.9569, -0.1, 0.2903, -1.0357, -0.1, 0.3706, -0.9415, -0.1, 0.3369, -0.9569, 0.1, 0.2903, -1.0357, 0.1, 0.3706, -1.0526, 0.1, 0.3193, -0.9569, -0.1, 0.2903, -1.067, -0.1, 0.2673, -1.0526, -0.1, 0.3193, -0.9569, 0.1, 0.2903, -1.067, 0.1, 0.2673, -0.97, 0.1, 0.243, -0.9808, -0.1, 0.1951, -1.067, -0.1, 0.2673, -0.97, -0.1, 0.243, -0.9808, 0.1, 0.1951, -1.067, 0.1, 0.2673, -1.0789, 0.1, 0.2146, -0.9892, -0.1, 0.1467, -1.0789, -0.1, 0.2146, -0.9808, -0.1, 0.1951, -0.9892, 0.1, 0.1467, -1.0789, 0.1, 0.2146, -1.0881, 0.1, 0.1614, -0.9892, -0.1, 0.1467, -1.0947, -0.1, 0.1078, -1.0881, -0.1, 0.1614, -0.9892, 0.1, 0.1467, -1.0947, 0.1, 0.1078, -0.9952, 0.1, 0.098, -0.9952, -0.1, 0.098, -1.0987, -0.1, 0.054, -1.0947, -0.1, 0.1078, -0.9952, 0.1, 0.098, -1.0987, 0.1, 0.054, -0.9988, 0.1, 0.0491, -0.9988, -0.1, 0.0491, -1.1, -0.1, 0, -1.0987, -0.1, 0.054, -0.9988, 0.1, 0.0491, -1.1, 0.1, 0, -1, 0.1, 0, -1.1, -0.1, 0, -1, 0.1, 0, -1.1, 0.1, 0, -0.7071, 0.1, 0.7071, -0.7778, -0.1, 0.7778, -0.7778, 0.1, 0.7778 )

[node name="circle_collider9" type="Spatial"]
transform = Transform( 40, 0, 0, 0, -1.74846e-06, -40, 0, 40, -1.74846e-06, 0, -36, 0 )

[node name="circle_collider" type="MeshInstance" parent="."]
mesh = SubResource( 1 )
material/0 = null

[node name="static_collision" type="StaticBody" parent="circle_collider"]

[node name="shape0" type="CollisionShape" parent="circle_collider/static_collision"]
shape = SubResource( 2 )

[node name="AnimationPlayer" type="AnimationPlayer" parent="."]
