[gd_scene load_steps=3 format=2]

[sub_resource type="CylinderShape" id=1]

[sub_resource type="CylinderMesh" id=2]

[node name="Pin" type="StaticBody"]
transform = Transform( 0.2, 0, 0, 0, -4.37114e-08, -0.2, 0, 1, -8.74228e-09, 0, 0, 0 )

[node name="CollisionShape" type="CollisionShape" parent="."]
shape = SubResource( 1 )

[node name="MeshInstance" type="MeshInstance" parent="."]
mesh = SubResource( 2 )
material/0 = null
