; Engine configuration file.
; It's best edited using the editor UI and not directly,
; since the parameters that go here are not all obvious.
;
; Format:
;   [section] ; section goes between []
;   param=value ; assign values to parameters

config_version=4

[application]

config/name="Nishi"
run/main_scene="res://Scenes/MainScene.tscn"
config/icon="res://icon.png"

[physics]

common/enable_pause_aware_picking=true
3d/default_gravity=500.0

[rendering]

quality/driver/driver_name="GLES2"
vram_compression/import_etc=true
vram_compression/import_etc2=false
environment/default_environment="res://default_env.tres"
